{"count":336,"next":"https://ll.thespacedevs.com/2.0.0/launch/upcoming/?limit=10&offset=10","previous":null,"results":[{"id":"587cba9a-2a6c-46c9-9b06-630a1bf86fe3","url":"https://ll.thespacedevs.com/2.0.0/launch/587cba9a-2a6c-46c9-9b06-630a1bf86fe3/","launch_library_id":null,"slug":"falcon-9-block-5-starlink-group-8-5","name":"Falcon 9 Block 5 | Starlink Group 8-5","status":{"id":3,"name":"Success"},"net":"2024-06-05T02:16:00Z","window_end":"2024-06-05T02:16:00Z","window_start":"2024-06-05T02:16:00Z","inhold":false,"tbdtime":false,"tbddate":false,"probability":95,"holdreason":"","failreason":"","hashtag":null,"launch_service_provider":{"id":121,"url":"https://ll.thespacedevs.com/2.0.0/agencies/121/","name":"SpaceX","type":"Commercial"},"rocket":{"id":8202,"configuration":{"id":164,"launch_library_id":188,"url":"https://ll.thespacedevs.com/2.0.0/config/launcher/164/","name":"Falcon 9","family":"Falcon","full_name":"Falcon 9 Block 5","variant":"Block 5"}},"mission":{"id":6773,"launch_library_id":null,"name":"Starlink Group 8-5","description":"A batch of 20 satellites for the Starlink mega-constellation - SpaceX's project for space-based Internet communication system.","launch_designator":null,"type":"Communications","orbit":{"id":8,"name":"Low Earth Orbit","abbrev":"LEO"}},"pad":{"id":80,"url":"https://ll.thespacedevs.com/2.0.0/pad/80/","agency_id":121,"name":"Space Launch Complex 40","info_url":null,"wiki_url":"https://en.wikipedia.org/wiki/Cape_Canaveral_Air_Force_Station_Space_Launch_Complex_40","map_url":"https://www.google.com/maps?q=28.56194122,-80.57735736","latitude":"28.56194122","longitude":"-80.57735736","location":{"id":12,"url":"https://ll.thespacedevs.com/2.0.0/location/12/","name":"Cape Canaveral, FL, USA","country_code":"USA","map_image":"https://spacelaunchnow-prod-east.nyc3.digitaloceanspaces.com/media/launch_images/location_12_20200803142519.jpg","total_launch_count":957,"total_landing_count":51},"map_image":"https://spacelaunchnow-prod-east.nyc3.digitaloceanspaces.com/media/launch_images/pad_80_20200803143323.jpg","total_launch_count":246},"webcast_live":false,"image":"https://spacelaunchnow-prod-east.nyc3.digitaloceanspaces.com/media/images/falcon2520925_image_20221009234147.png","infographic":null,"program":[{"id":25,"url":"https://ll.thespacedevs.com/2.0.0/program/25/","name":"Starlink","description":"Starlink is a satellite internet constellation operated by American aerospace company SpaceX","agencies":[{"id":121,"url":"https://ll.thespacedevs.com/2.0.0/agencies/121/","name":"SpaceX","type":"Commercial"}],"image_url":"https://spacelaunchnow-prod-east.nyc3.digitaloceanspaces.com/media/images/starlink_program_20231228154508.jpeg","start_date":"2018-02-22T14:17:00Z","end_date":null,"info_url":"https://starlink.com","wiki_url":"https://en.wikipedia.org/wiki/Starlink"}]},{"id":"0bcda9f1-a347-408d-88cd-b8b5bd6fffc2","url":"https://ll.thespacedevs.com/2.0.0/launch/0bcda9f1-a347-408d-88cd-b8b5bd6fffc2/","launch_library_id":null,"slug":"electron-prefire-and-ice-prefire-2","name":"Electron | PREFIRE And Ice (PREFIRE 2)","status":{"id":3,"name":"Success"},"net":"2024-06-05T03:15:00Z","window_end":"2024-06-05T03:15:00Z","window_start":"2024-06-05T03:15:00Z","inhold":false,"tbdtime":false,"tbddate":false,"probability":80,"holdreason":"","failreason":"","hashtag":null,"launch_service_provider":{"id":147,"url":"https://ll.thespacedevs.com/2.0.0/agencies/147/","name":"Rocket Lab","type":"Commercial"},"rocket":{"id":7984,"configuration":{"id":26,"launch_library_id":148,"url":"https://ll.thespacedevs.com/2.0.0/config/launcher/26/","name":"Electron","family":"","full_name":"Electron","variant":""}},"mission":{"id":6509,"launch_library_id":null,"name":"PREFIRE And Ice (PREFIRE 2)","description":"Second 6U Cubesat carrying a miniaturized IR spectrometer, covering 0- 45 μm at 0.84 μm spectral resolution, operating for one seasonal cycle for NASAs PREFIRE (Polar Radiant Energy in the Far-InfraRed Experiment) mission.","launch_designator":null,"type":"Earth Science","orbit":{"id":13,"name":"Polar Orbit","abbrev":"PO"}},"pad":{"id":185,"url":"https://ll.thespacedevs.com/2.0.0/pad/185/","agency_id":147,"name":"Rocket Lab Launch Complex 1B","info_url":null,"wiki_url":"https://en.wikipedia.org/wiki/Rocket_Lab_Launch_Complex_1","map_url":"https://www.google.com/maps?q=-39.262833,177.864469","latitude":"-39.262833","longitude":"177.864469","location":{"id":10,"url":"https://ll.thespacedevs.com/2.0.0/location/10/","name":"Onenui Station, Mahia Peninsula, New Zealand","country_code":"NZL","map_image":"https://spacelaunchnow-prod-east.nyc3.digitaloceanspaces.com/media/launch_images/location_10_20200803142509.jpg","total_launch_count":45,"total_landing_count":17},"map_image":"https://spacelaunchnow-prod-east.nyc3.digitaloceanspaces.com/media/launch_images/pad_185_20200803143540.jpg","total_launch_count":19},"webcast_live":false,"image":"https://spacelaunchnow-prod-east.nyc3.digitaloceanspaces.com/media/images/electron_on_lc-_image_20240602163715.jpeg","infographic":null,"program":[]},{"id":"968067d1-8c12-4018-9854-b7b7d4bddc6b","url":"https://ll.thespacedevs.com/2.0.0/launch/968067d1-8c12-4018-9854-b7b7d4bddc6b/","launch_library_id":1356,"slug":"atlas-v-n22-cst-100-starliner-crewed-flight-test","name":"Atlas V N22 | CST-100 Starliner Crewed Flight Test","status":{"id":1,"name":"Go"},"net":"2024-06-05T14:52:15Z","window_end":"2024-06-05T14:52:15Z","window_start":"2024-06-05T14:52:15Z","inhold":false,"tbdtime":false,"tbddate":false,"probability":90,"holdreason":"","failreason":"","hashtag":null,"launch_service_provider":{"id":124,"url":"https://ll.thespacedevs.com/2.0.0/agencies/124/","name":"United Launch Alliance","type":"Commercial"},"rocket":{"id":103,"configuration":{"id":166,"launch_library_id":118,"url":"https://ll.thespacedevs.com/2.0.0/config/launcher/166/","name":"Atlas V N22","family":"Atlas","full_name":"Atlas V N22","variant":"V N22"}},"mission":{"id":1052,"launch_library_id":1250,"name":"CST-100 Starliner Crewed Flight Test","description":"This is the first crewed test flight of Starliner spacecraft. It will carry NASA astronauts Barry Wilmore and\r\nSuni Williams to the International Space Station.","launch_designator":null,"type":"Test Flight","orbit":{"id":8,"name":"Low Earth Orbit","abbrev":"LEO"}},"pad":{"id":29,"url":"https://ll.thespacedevs.com/2.0.0/pad/29/","agency_id":null,"name":"Space Launch Complex 41","info_url":null,"wiki_url":"https://en.wikipedia.org/wiki/Cape_Canaveral_Air_Force_Station_Space_Launch_Complex_41","map_url":"https://www.google.com/maps?q=28.58341025,-80.58303644","latitude":"28.58341025","longitude":"-80.58303644","location":{"id":12,"url":"https://ll.thespacedevs.com/2.0.0/location/12/","name":"Cape Canaveral, FL, USA","country_code":"USA","map_image":"https://spacelaunchnow-prod-east.nyc3.digitaloceanspaces.com/media/launch_images/location_12_20200803142519.jpg","total_launch_count":957,"total_landing_count":51},"map_image":"https://spacelaunchnow-prod-east.nyc3.digitaloceanspaces.com/media/launch_images/pad_29_20200803143528.jpg","total_launch_count":111},"webcast_live":true,"image":"https://spacelaunchnow-prod-east.nyc3.digitaloceanspaces.com/media/images/atlas_v_n22_on__image_20240602164247.jpg","infographic":null,"program":[{"id":5,"url":"https://ll.thespacedevs.com/2.0.0/program/5/","name":"Commercial Crew Program","description":"The Commercial Crew Program (CCP) is a human spaceflight program operated by NASA, in association with American aerospace manufacturers Boeing and SpaceX. The program conducts rotations between the expeditions of the International Space Station program, transporting crews to and from the International Space Station (ISS) aboard Boeing Starliner and SpaceX Crew Dragon capsules, in the first crewed orbital spaceflights operated by private companies.","agencies":[{"id":80,"url":"https://ll.thespacedevs.com/2.0.0/agencies/80/","name":"Boeing","type":"Commercial"},{"id":44,"url":"https://ll.thespacedevs.com/2.0.0/agencies/44/","name":"National Aeronautics and Space Administration","type":"Government"},{"id":121,"url":"https://ll.thespacedevs.com/2.0.0/agencies/121/","name":"SpaceX","type":"Commercial"}],"image_url":"https://spacelaunchnow-prod-east.nyc3.digitaloceanspaces.com/media/images/commercial2520_program_20200820201209.png","start_date":"2011-04-18T00:00:00Z","end_date":null,"info_url":"https://www.nasa.gov/exploration/commercial/crew/index.html","wiki_url":"https://en.wikipedia.org/wiki/Commercial_Crew_Program"},{"id":17,"url":"https://ll.thespacedevs.com/2.0.0/program/17/","name":"International Space Station","description":"The International Space Station programme is tied together by a complex set of legal, political and financial agreements between the sixteen nations involved in the project, governing ownership of the various components, rights to crewing and utilization, and responsibilities for crew rotation and resupply of the International Space Station. It was conceived in 1984 by President Ronald Reagan, during the Space Station Freedom project as it was originally called.","agencies":[{"id":16,"url":"https://ll.thespacedevs.com/2.0.0/agencies/16/","name":"Canadian Space Agency","type":"Government"},{"id":27,"url":"https://ll.thespacedevs.com/2.0.0/agencies/27/","name":"European Space Agency","type":"Multinational"},{"id":37,"url":"https://ll.thespacedevs.com/2.0.0/agencies/37/","name":"Japan Aerospace Exploration Agency","type":"Government"},{"id":44,"url":"https://ll.thespacedevs.com/2.0.0/agencies/44/","name":"National Aeronautics and Space Administration","type":"Government"},{"id":63,"url":"https://ll.thespacedevs.com/2.0.0/agencies/63/","name":"Russian Federal Space Agency (ROSCOSMOS)","type":"Government"}],"image_url":"https://spacelaunchnow-prod-east.nyc3.digitaloceanspaces.com/media/images/international2_program_20201129184745.png","start_date":"1998-11-20T06:40:00Z","end_date":null,"info_url":"https://www.nasa.gov/mission_pages/station/main/index.html","wiki_url":"https://en.wikipedia.org/wiki/International_Space_Station_programme"}]},{"id":"f88c4d51-e65a-4c58-bf53-291ad8c2bbfc","url":"https://ll.thespacedevs.com/2.0.0/launch/f88c4d51-e65a-4c58-bf53-291ad8c2bbfc/","launch_library_id":null,"slug":"ceres-1-unknown-payload","name":"Ceres-1 | Unknown Payload","status":{"id":1,"name":"Go"},"net":"2024-06-06T05:00:00Z","window_end":"2024-06-06T05:38:00Z","window_start":"2024-06-06T04:50:00Z","inhold":false,"tbdtime":true,"tbddate":false,"probability":null,"holdreason":"","failreason":"","hashtag":null,"launch_service_provider":{"id":1021,"url":"https://ll.thespacedevs.com/2.0.0/agencies/1021/","name":"Galactic Energy","type":"Commercial"},"rocket":{"id":8257,"configuration":{"id":461,"launch_library_id":null,"url":"https://ll.thespacedevs.com/2.0.0/config/launcher/461/","name":"Ceres-1","family":"Ceres-1","full_name":"Ceres-1","variant":"Ceres-1"}},"mission":{"id":6838,"launch_library_id":null,"name":"Unknown Payload","description":"Details TBD.","launch_designator":null,"type":"Unknown","orbit":{"id":25,"name":"Unknown","abbrev":"N/A"}},"pad":{"id":21,"url":"https://ll.thespacedevs.com/2.0.0/pad/21/","agency_id":null,"name":"Launch Area 95A","info_url":null,"wiki_url":"https://en.wikipedia.org/wiki/Jiuquan_Satellite_Launch_Center","map_url":"https://www.google.com/maps?q=40.969117,100.343333","latitude":"40.969117","longitude":"100.343333","location":{"id":17,"url":"https://ll.thespacedevs.com/2.0.0/location/17/","name":"Jiuquan Satellite Launch Center, People's Republic of China","country_code":"CHN","map_image":"https://spacelaunchnow-prod-east.nyc3.digitaloceanspaces.com/media/launch_images/location_17_20200803142429.jpg","total_launch_count":227,"total_landing_count":0},"map_image":"https://spacelaunchnow-prod-east.nyc3.digitaloceanspaces.com/media/launch_images/pad_21_20200803143253.jpg","total_launch_count":53},"webcast_live":false,"image":"https://spacelaunchnow-prod-east.nyc3.digitaloceanspaces.com/media/images/ceres-1_image_20230722081939.jpeg","infographic":null,"program":[]},{"id":"2b1b756f-7207-4781-a874-aed61b38463d","url":"https://ll.thespacedevs.com/2.0.0/launch/2b1b756f-7207-4781-a874-aed61b38463d/","launch_library_id":null,"slug":"starship-integrated-flight-test-4","name":"Starship | Integrated Flight Test 4","status":{"id":1,"name":"Go"},"net":"2024-06-06T12:00:00Z","window_end":"2024-06-06T14:00:00Z","window_start":"2024-06-06T12:00:00Z","inhold":false,"tbdtime":false,"tbddate":false,"probability":null,"holdreason":"","failreason":"","hashtag":null,"launch_service_provider":{"id":121,"url":"https://ll.thespacedevs.com/2.0.0/agencies/121/","name":"SpaceX","type":"Commercial"},"rocket":{"id":8221,"configuration":{"id":464,"launch_library_id":null,"url":"https://ll.thespacedevs.com/2.0.0/config/launcher/464/","name":"Starship","family":"Starship","full_name":"Starship","variant":""}},"mission":{"id":6798,"launch_library_id":null,"name":"Integrated Flight Test 4","description":"Fourth test flight of the two-stage Starship launch vehicle.","launch_designator":null,"type":"Test Flight","orbit":{"id":15,"name":"Suborbital","abbrev":"Sub"}},"pad":{"id":188,"url":"https://ll.thespacedevs.com/2.0.0/pad/188/","agency_id":121,"name":"Orbital Launch Mount A","info_url":null,"wiki_url":"https://en.wikipedia.org/wiki/SpaceX_South_Texas_Launch_Site","map_url":"https://www.google.com/maps?q=25.997116,-97.15503099856647","latitude":"25.997116","longitude":"-97.15503099856647","location":{"id":143,"url":"https://ll.thespacedevs.com/2.0.0/location/143/","name":"SpaceX Starbase, TX, USA","country_code":"USA","map_image":"https://spacelaunchnow-prod-east.nyc3.digitaloceanspaces.com/media/launch_images/location_143_20200803142438.jpg","total_launch_count":12,"total_landing_count":9},"map_image":"https://spacelaunchnow-prod-east.nyc3.digitaloceanspaces.com/media/launch_images/pad_orbital_launch_mount_a_20210514061342.jpg","total_launch_count":3},"webcast_live":false,"image":"https://spacelaunchnow-prod-east.nyc3.digitaloceanspaces.com/media/images/starship_full_s_image_20240520184130.jpeg","infographic":null,"program":[{"id":1,"url":"https://ll.thespacedevs.com/2.0.0/program/1/","name":"SpaceX Starship","description":"The SpaceX Starship is a fully reusable super heavy-lift launch vehicle under development by SpaceX since 2012, as a self-funded private spaceflight project.  The second stage of the Starship — is designed as a long-duration cargo and passenger-carrying spacecraft. It is expected to be initially used without any booster stage at all, as part of an extensive development program to prove out launch-and-landing and iterate on a variety of design details, particularly with respect to the vehicle's atmospheric reentry.","agencies":[{"id":121,"url":"https://ll.thespacedevs.com/2.0.0/agencies/121/","name":"SpaceX","type":"Commercial"}],"image_url":"https://spacelaunchnow-prod-east.nyc3.digitaloceanspaces.com/media/images/spacex2520star_program_20201129204513.png","start_date":"2019-03-01T05:00:00Z","end_date":null,"info_url":"https://www.spacex.com/vehicles/starship/","wiki_url":"https://en.wikipedia.org/wiki/SpaceX_Starship"}]},{"id":"cdc8274b-932e-48d6-9e8d-691969da4ad0","url":"https://ll.thespacedevs.com/2.0.0/launch/cdc8274b-932e-48d6-9e8d-691969da4ad0/","launch_library_id":null,"slug":"falcon-9-block-5-starlink-group-10-1","name":"Falcon 9 Block 5 | Starlink Group 10-1","status":{"id":2,"name":"TBD"},"net":"2024-06-07T22:58:00Z","window_end":"2024-06-08T02:21:00Z","window_start":"2024-06-07T22:58:00Z","inhold":false,"tbdtime":true,"tbddate":false,"probability":null,"holdreason":"","failreason":"","hashtag":null,"launch_service_provider":{"id":121,"url":"https://ll.thespacedevs.com/2.0.0/agencies/121/","name":"SpaceX","type":"Commercial"},"rocket":{"id":8256,"configuration":{"id":164,"launch_library_id":188,"url":"https://ll.thespacedevs.com/2.0.0/config/launcher/164/","name":"Falcon 9","family":"Falcon","full_name":"Falcon 9 Block 5","variant":"Block 5"}},"mission":{"id":6837,"launch_library_id":null,"name":"Starlink Group 10-1","description":"A batch of satellites for the Starlink mega-constellation - SpaceX's project for space-based Internet communication system.","launch_designator":null,"type":"Communications","orbit":{"id":8,"name":"Low Earth Orbit","abbrev":"LEO"}},"pad":{"id":80,"url":"https://ll.thespacedevs.com/2.0.0/pad/80/","agency_id":121,"name":"Space Launch Complex 40","info_url":null,"wiki_url":"https://en.wikipedia.org/wiki/Cape_Canaveral_Air_Force_Station_Space_Launch_Complex_40","map_url":"https://www.google.com/maps?q=28.56194122,-80.57735736","latitude":"28.56194122","longitude":"-80.57735736","location":{"id":12,"url":"https://ll.thespacedevs.com/2.0.0/location/12/","name":"Cape Canaveral, FL, USA","country_code":"USA","map_image":"https://spacelaunchnow-prod-east.nyc3.digitaloceanspaces.com/media/launch_images/location_12_20200803142519.jpg","total_launch_count":957,"total_landing_count":51},"map_image":"https://spacelaunchnow-prod-east.nyc3.digitaloceanspaces.com/media/launch_images/pad_80_20200803143323.jpg","total_launch_count":246},"webcast_live":false,"image":"https://spacelaunchnow-prod-east.nyc3.digitaloceanspaces.com/media/images/falcon2520925_image_20221009234147.png","infographic":null,"program":[{"id":25,"url":"https://ll.thespacedevs.com/2.0.0/program/25/","name":"Starlink","description":"Starlink is a satellite internet constellation operated by American aerospace company SpaceX","agencies":[{"id":121,"url":"https://ll.thespacedevs.com/2.0.0/agencies/121/","name":"SpaceX","type":"Commercial"}],"image_url":"https://spacelaunchnow-prod-east.nyc3.digitaloceanspaces.com/media/images/starlink_program_20231228154508.jpeg","start_date":"2018-02-22T14:17:00Z","end_date":null,"info_url":"https://starlink.com","wiki_url":"https://en.wikipedia.org/wiki/Starlink"}]},{"id":"c4a4f111-dd24-491a-bc44-8bcaf2e08351","url":"https://ll.thespacedevs.com/2.0.0/launch/c4a4f111-dd24-491a-bc44-8bcaf2e08351/","launch_library_id":null,"slug":"spaceshiptwo-galactic-07","name":"SpaceShipTwo | Galactic 07","status":{"id":2,"name":"TBD"},"net":"2024-06-08T00:00:00Z","window_end":"2024-06-08T00:00:00Z","window_start":"2024-06-08T00:00:00Z","inhold":false,"tbdtime":true,"tbddate":false,"probability":null,"holdreason":"","failreason":"","hashtag":null,"launch_service_provider":{"id":1024,"url":"https://ll.thespacedevs.com/2.0.0/agencies/1024/","name":"Virgin Galactic","type":"Private"},"rocket":{"id":8092,"configuration":{"id":465,"launch_library_id":null,"url":"https://ll.thespacedevs.com/2.0.0/config/launcher/465/","name":"SpaceShipTwo","family":"","full_name":"SpaceShipTwo","variant":""}},"mission":{"id":6646,"launch_library_id":null,"name":"Galactic 07","description":"Seventh commercial Virgin Galactic mission.","launch_designator":null,"type":"Tourism","orbit":{"id":15,"name":"Suborbital","abbrev":"Sub"}},"pad":{"id":191,"url":"https://ll.thespacedevs.com/2.0.0/pad/191/","agency_id":1024,"name":"Spaceport America","info_url":"https://www.spaceportamerica.com/","wiki_url":"https://en.wikipedia.org/wiki/Spaceport_America","map_url":"https://www.google.com/maps?q=32.9902778,-106.9719162","latitude":"32.9902778","longitude":"-106.9719162","location":{"id":144,"url":"https://ll.thespacedevs.com/2.0.0/location/144/","name":"Air launch to Suborbital flight","country_code":"???","map_image":"https://spacelaunchnow-prod-east.nyc3.digitaloceanspaces.com/media/launch_images/location_144_20200803142439.jpg","total_launch_count":85,"total_landing_count":0},"map_image":"https://spacelaunchnow-prod-east.nyc3.digitaloceanspaces.com/media/launch_images/pad_spaceport_america_20210522162030.jpg","total_launch_count":13},"webcast_live":false,"image":"https://spacelaunchnow-prod-east.nyc3.digitaloceanspaces.com/media/images/spaceshiptwo_image_20210522140909.jpeg","infographic":null,"program":[]},{"id":"32f98a5d-b605-4e18-9b92-9dbd59f0681f","url":"https://ll.thespacedevs.com/2.0.0/launch/32f98a5d-b605-4e18-9b92-9dbd59f0681f/","launch_library_id":null,"slug":"falcon-9-block-5-starlink-group-8-8","name":"Falcon 9 Block 5 | Starlink Group 8-8","status":{"id":2,"name":"TBD"},"net":"2024-06-08T10:00:00Z","window_end":"2024-06-08T14:00:00Z","window_start":"2024-06-08T10:00:00Z","inhold":false,"tbdtime":true,"tbddate":false,"probability":null,"holdreason":"","failreason":"","hashtag":null,"launch_service_provider":{"id":121,"url":"https://ll.thespacedevs.com/2.0.0/agencies/121/","name":"SpaceX","type":"Commercial"},"rocket":{"id":8255,"configuration":{"id":164,"launch_library_id":188,"url":"https://ll.thespacedevs.com/2.0.0/config/launcher/164/","name":"Falcon 9","family":"Falcon","full_name":"Falcon 9 Block 5","variant":"Block 5"}},"mission":{"id":6836,"launch_library_id":null,"name":"Starlink Group 8-8","description":"A batch of satellites for the Starlink mega-constellation - SpaceX's project for space-based Internet communication system.","launch_designator":null,"type":"Communications","orbit":{"id":8,"name":"Low Earth Orbit","abbrev":"LEO"}},"pad":{"id":16,"url":"https://ll.thespacedevs.com/2.0.0/pad/16/","agency_id":null,"name":"Space Launch Complex 4E","info_url":null,"wiki_url":"https://en.wikipedia.org/wiki/Vandenberg_Space_Launch_Complex_4#SLC-4E","map_url":"https://www.google.com/maps?q=34.632,-120.611","latitude":"34.632","longitude":"-120.611","location":{"id":11,"url":"https://ll.thespacedevs.com/2.0.0/location/11/","name":"Vandenberg SFB, CA, USA","country_code":"USA","map_image":"https://spacelaunchnow-prod-east.nyc3.digitaloceanspaces.com/media/launch_images/location_11_20200803142416.jpg","total_launch_count":757,"total_landing_count":19},"map_image":"https://spacelaunchnow-prod-east.nyc3.digitaloceanspaces.com/media/launch_images/pad_16_20200803143532.jpg","total_launch_count":146},"webcast_live":false,"image":"https://spacelaunchnow-prod-east.nyc3.digitaloceanspaces.com/media/images/falcon2520925_image_20221009234147.png","infographic":null,"program":[{"id":25,"url":"https://ll.thespacedevs.com/2.0.0/program/25/","name":"Starlink","description":"Starlink is a satellite internet constellation operated by American aerospace company SpaceX","agencies":[{"id":121,"url":"https://ll.thespacedevs.com/2.0.0/agencies/121/","name":"SpaceX","type":"Commercial"}],"image_url":"https://spacelaunchnow-prod-east.nyc3.digitaloceanspaces.com/media/images/starlink_program_20231228154508.jpeg","start_date":"2018-02-22T14:17:00Z","end_date":null,"info_url":"https://starlink.com","wiki_url":"https://en.wikipedia.org/wiki/Starlink"}]},{"id":"e59f9e0b-fed2-4b12-a21b-ceda262bca5e","url":"https://ll.thespacedevs.com/2.0.0/launch/e59f9e0b-fed2-4b12-a21b-ceda262bca5e/","launch_library_id":null,"slug":"falcon-9-block-5-astra-1pses-24","name":"Falcon 9 Block 5 | Astra 1P/SES-24","status":{"id":2,"name":"TBD"},"net":"2024-06-10T00:00:00Z","window_end":"2024-06-10T00:00:00Z","window_start":"2024-06-10T00:00:00Z","inhold":false,"tbdtime":true,"tbddate":false,"probability":null,"holdreason":"","failreason":"","hashtag":null,"launch_service_provider":{"id":121,"url":"https://ll.thespacedevs.com/2.0.0/agencies/121/","name":"SpaceX","type":"Commercial"},"rocket":{"id":8057,"configuration":{"id":164,"launch_library_id":188,"url":"https://ll.thespacedevs.com/2.0.0/config/launcher/164/","name":"Falcon 9","family":"Falcon","full_name":"Falcon 9 Block 5","variant":"Block 5"}},"mission":{"id":6610,"launch_library_id":null,"name":"Astra 1P/SES-24","description":"ASTRA 1P, a classic wide-beam satellite, will support SES’s prime TV neighbourhood and enable content owners, private and public broadcasters across Germany, France and Spain to continue broadcasting satellite TV channels in the highest-picture quality in the most cost-efficient manner. It will be based on the full electric and powerful Spacebus NEO platform developed by Thales Alenia Space and already flight proven in orbit.","launch_designator":null,"type":"Communications","orbit":{"id":2,"name":"Geostationary Transfer Orbit","abbrev":"GTO"}},"pad":{"id":80,"url":"https://ll.thespacedevs.com/2.0.0/pad/80/","agency_id":121,"name":"Space Launch Complex 40","info_url":null,"wiki_url":"https://en.wikipedia.org/wiki/Cape_Canaveral_Air_Force_Station_Space_Launch_Complex_40","map_url":"https://www.google.com/maps?q=28.56194122,-80.57735736","latitude":"28.56194122","longitude":"-80.57735736","location":{"id":12,"url":"https://ll.thespacedevs.com/2.0.0/location/12/","name":"Cape Canaveral, FL, USA","country_code":"USA","map_image":"https://spacelaunchnow-prod-east.nyc3.digitaloceanspaces.com/media/launch_images/location_12_20200803142519.jpg","total_launch_count":957,"total_landing_count":51},"map_image":"https://spacelaunchnow-prod-east.nyc3.digitaloceanspaces.com/media/launch_images/pad_80_20200803143323.jpg","total_launch_count":246},"webcast_live":false,"image":"https://spacelaunchnow-prod-east.nyc3.digitaloceanspaces.com/media/images/falcon_9_image_20230807133459.jpeg","infographic":null,"program":[]},{"id":"341c544e-d3b7-41fd-b5d4-7ffacc7ccaac","url":"https://ll.thespacedevs.com/2.0.0/launch/341c544e-d3b7-41fd-b5d4-7ffacc7ccaac/","launch_library_id":null,"slug":"long-march-2c-space-variable-objects-monitor-svom","name":"Long March 2C | Space Variable Objects Monitor (SVOM)","status":{"id":2,"name":"TBD"},"net":"2024-06-24T10:00:00Z","window_end":"2024-06-24T10:00:00Z","window_start":"2024-06-24T10:00:00Z","inhold":false,"tbdtime":true,"tbddate":false,"probability":null,"holdreason":"","failreason":"","hashtag":null,"launch_service_provider":{"id":88,"url":"https://ll.thespacedevs.com/2.0.0/agencies/88/","name":"China Aerospace Science and Technology Corporation","type":"Government"},"rocket":{"id":8159,"configuration":{"id":61,"launch_library_id":75,"url":"https://ll.thespacedevs.com/2.0.0/config/launcher/61/","name":"Long March 2","family":"Long March","full_name":"Long March 2C","variant":"C"}},"mission":{"id":6720,"launch_library_id":null,"name":"Space Variable Objects Monitor (SVOM)","description":"The Space Variable Objects Monitor (SVOM) is a French/Chinese planned small X-ray telescope satellite under development by China National Space Administration (CNSA) and the Centre National d'Études Spatiales (CNES).\r\n\r\nSVOM will study the explosions of massive stars by analysing the resulting gamma-ray bursts. The lightweight X-ray mirror for SVOM weighs just 1 kg (2.2 lb). SVOM will add new capabilities to the work of finding gamma-ray bursts currently being done by the multinational satellite Swift.\r\n\r\nIts anti-solar pointing strategy makes the Earth cross the field of view of its payload every orbit.","launch_designator":null,"type":"Astrophysics","orbit":{"id":8,"name":"Low Earth Orbit","abbrev":"LEO"}},"pad":{"id":66,"url":"https://ll.thespacedevs.com/2.0.0/pad/66/","agency_id":17,"name":"Launch Complex 3 (LC-3/LA-1)","info_url":null,"wiki_url":"https://en.wikipedia.org/wiki/Xichang_Satellite_Launch_Center","map_url":"https://www.google.com/maps?q=28.247209,102.02917","latitude":"28.247209","longitude":"102.02917","location":{"id":16,"url":"https://ll.thespacedevs.com/2.0.0/location/16/","name":"Xichang Satellite Launch Center, People's Republic of China","country_code":"CHN","map_image":"https://spacelaunchnow-prod-east.nyc3.digitaloceanspaces.com/media/launch_images/location_16_20200803142513.jpg","total_launch_count":206,"total_landing_count":0},"map_image":"https://spacelaunchnow-prod-east.nyc3.digitaloceanspaces.com/media/launch_images/pad_66_20200803143611.jpg","total_launch_count":91},"webcast_live":false,"image":"https://spacelaunchnow-prod-east.nyc3.digitaloceanspaces.com/media/images/long_march_2_image_20230803100234.jpeg","infographic":null,"program":[]}]}